<?xml version="1.0" encoding="UTF-8"?>
<svg width="26px" height="25px" viewBox="0 0 26 25" version="1.1" xmlns="http://www.w3.org/2000/svg" xmlns:xlink="http://www.w3.org/1999/xlink">
    <!-- Generator: Sketch 52.1 (67048) - http://www.bohemiancoding.com/sketch -->
    <title>Group 6</title>
    <desc>Created with Sketch.</desc>
    <g id="Welcome" stroke="none" stroke-width="1" fill="none" fill-rule="evenodd" stroke-linecap="round" stroke-linejoin="round">
        <g id="Nguoi-dung" transform="translate(-1118.000000, -91.000000)" stroke="#4A4A4A" stroke-width="1.5">
            <g id="Header" transform="translate(-4.000000, 41.000000)">
                <g id="Group-6" transform="translate(1122.000000, 51.000000)">
                    <circle id="Oval" cx="8.5" cy="21.5" r="1.5"></circle>
                    <circle id="Oval" cx="20.5" cy="21.5" r="1.5"></circle>
                    <polyline id="Path-4" points="0.975585938 9.25434317e-17 4.34814453 9.25434317e-17 8.44482422 13.3369141 6.03515625 16 6.72949219 17.1616211 22.2636719 17.1616211"></polyline>
                    <path d="M5.18652344,3 L22.699707,3 C24.2749023,2.75757576 24.781901,3.36363636 24.2207031,4.81818182 C23.6595052,6.27272727 22.5304362,8.65364583 20.8334961,11.9609375 C20.2364909,12.8805339 19.4278971,13.340332 18.4077148,13.340332 C17.3875326,13.340332 14.1536458,13.340332 8.70605469,13.340332" id="Path-5"></path>
                </g>
            </g>
        </g>
    </g>
</svg>